[
  [1, 5],
  [1, 45],
  [2, 48],
  [2, 57],
  [3, 23],
  [3, 28],
  [3, 31],
  [4, 14],
  [4, 32],
  [8, 44],
  [8, 47],
  [8, 48],
  [10, 28],
  [10, 47],
  [10, 62],
  [16, 8],
  [17, 0],
  [18, 13],
  [18, 14],
  [18, 15],
  [20, 13]
]
